Kelly Cao Data Analysis Portfolio - Fitting Exercise
…
# Combining the two data frames with join function
combined_data <- left_join(summarized_data, Time0_df, by = "ID")
combined_data # Frame with 120 x 18

# A tibble: 120 × 18
      ID     Y   CMT  EVID  EVI2   MDV    DV  LNDV   AMT  TIME DOSE    OCC  RATE
   <int> <dbl> <int> <int> <int> <int> <dbl> <dbl> <dbl> <dbl> <fct> <int> <int>
 1   793 2691.     1     1     1     1     0     0    25     0 25        1    75
 2   794 2639.     1     1     1     1     0     0    25     0 25        1   150
 3   795 2150.     1     1     1     1     0     0    25     0 25        1   150
 4   796 1789.     1     1     1     1     0     0    25     0 25        1   150
 5   797 3126.     1     1     1     1     0     0    25     0 25        1   150
 6   798 2337.     1     1     1     1     0     0    25     0 25        1   150
 7   799 3007.     1     1     1     1     0     0    25     0 25        1   150
 8   800 2796.     1     1     1     1     0     0    25     0 25        1   150
 9   801 3866.     1     1     1     1     0     0    25     0 25        1   150
10   802 1762.     1     1     1     1     0     0    25     0 25        1   150
# ℹ 110 more rows
# ℹ 5 more variables: AGE <int>, SEX <int>, RACE <int>, WT <dbl>, HT <dbl>
…
